…
<!-- end list -->

``` r
instacart %>% 
  group_by(name) %>% 
  summarize(n= n())
```

    ## # A tibble: 39,123 x 2
    ##    name                                                                   n
    ##    <fct>                                                              <int>
    ##  1 "\\\"Constant Comment\\\" Black Tea"                                   3
    ##  2 "\\\"Constant Comment\\\" Decaffeinated Black Tea Blend"               3
    ##  3 "\\\"Darn Good\\\" Chili Mix"                                          5
    ##  4 "\\\"Im Pei-nut Butter\\\" Double Chocolate Cookie & Peanut Butte…     5
    ##  5 "\\\"Mies Vanilla Rohe\\\" Ice Cream Bars"                             6
    ##  6 "\\\"Mokaccino\\\" Milk + Blue Bottle Coffee Chocolate"               10
    ##  7 & Go! Hazelnut Spread + Pretzel Sticks                                10
    ##  8 #2 Coffee Filters                                                     22
    ##  9 #2 Cone White Coffee Filters                                           1
    ## 10 #2 Mechanical Pencils                                                  1
    ## # … with 39,113 more rows
…
<!-- end list -->

``` r
instacart %>% 
   group_by(name) %>% 
  summarize(n = n(),
            mean_hour = mean(hour, na.rm = TRUE), 
            mean_day = mean(day, na.rm = TRUE)
            ) %>% 
    mutate(product_ranking = min_rank(n))
```

    ## # A tibble: 39,123 x 5
    ##    name                                n mean_hour mean_day product_ranking
    ##    <fct>                           <int>     <dbl>    <dbl>           <int>
    ##  1 "\\\"Constant Comment\\\" Blac…     3      11.7     3.33           12795
    ##  2 "\\\"Constant Comment\\\" Deca…     3      12.7     3.33           12795
    ##  3 "\\\"Darn Good\\\" Chili Mix"       5      13.6     4.2            18527
    ##  4 "\\\"Im Pei-nut Butter\\\" Dou…     5      12.6     4.2            18527
    ##  5 "\\\"Mies Vanilla Rohe\\\" Ice…     6      11.3     3.17           20342
    ##  6 "\\\"Mokaccino\\\" Milk + Blue…    10      13.2     3.1            24997
    ##  7 & Go! Hazelnut Spread + Pretze…    10      12.8     2.1            24997
    ##  8 #2 Coffee Filters                  22      14.0     3              30571
    ##  9 #2 Cone White Coffee Filters        1      10       3                  1
    ## 10 #2 Mechanical Pencils               1      16       2                  1
    ## # … with 39,113 more rows

\_ Counting Aisles

  - Here we can see that there are 134 aisles.

<!-- end list -->

``` r
instacart %>% 
count(aisle_id, aisle)
```

    ## # A tibble: 134 x 3
    ##    aisle_id aisle                          n
    ##       <int> <chr>                      <int>
    ##  1        1 prepared soups salads       2936
    ##  2        2 specialty cheeses           3873
    ##  3        3 energy granola bars        17449
    ##  4        4 instant foods               9917
    ##  5        5 marinades meat preparation  2905
    ##  6        6 other                       1795
    ##  7        7 packaged meat               1526
    ##  8        8 bakery desserts             1501
    ##  9        9 pasta sauce                 9736
    ## 10       10 kitchen supplies             448
    ## # … with 124 more rows
…
